{
    "tests": [
        {
            "type": "replace_files",
            "files": [
                "C++/2_Advanced/08_ArrayStats/ArrayStats.h"
            ]
        },
        {
            "type": "compile",
            "max_score": 10.0,
            "number": "1",
            "tags": [],
            "visibility": "visible"
        },
        {
            "type": "functionality",
            "max_score": 15.0,
            "number": "2",
            "tags": [],
            "visibility": "visible",
            "tester_file": "C++/2_Advanced/08_ArrayStats/average_tester.cpp"
        },
        {
            "type": "functionality",
            "max_score": 15.0,
            "number": "3",
            "tags": [],
            "visibility": "visible",
            "tester_file": "C++/2_Advanced/08_ArrayStats/median_tester.cpp"
        },
        {
            "type": "functionality",
            "max_score": 15.0,
            "number": "4",
            "tags": [],
            "visibility": "visible",
            "tester_file": "C++/2_Advanced/08_ArrayStats/span_tester.cpp"
        },
        {
            "type": "functionality",
            "max_score": 15.0,
            "number": "5",
            "tags": [],
            "visibility": "visible",
            "tester_file": "C++/2_Advanced/08_ArrayStats/stddev_tester.cpp"
        },
        {
            "type": "static",
            "max_score": 10.0,
            "number": "6",
            "tags": [],
            "visibility": "visible"
        },
        {
            "type": "comments",
            "max_score": 10.0,
            "number": "7",
            "tags": [],
            "visibility": "visible"
        },
        {
            "type": "style",
            "max_score": 10.0,
            "number": "8",
            "tags": [],
            "visibility": "visible",
            "style": "google"
        }
    ]
}