{
    "tests": [
        {
            "type": "replace_files",
            "files": [
                "C++/3_Expert/05_TreeSearch/TreeSearch.h"
            ],
            "override": true
        },
        {
            "type": "compile",
            "max_score": 10.0,
            "number": "1",
            "tags": [],
            "visibility": "visible"
        },
        {
            "type": "functionality",
            "max_score": 30.0,
            "number": "2",
            "tags": [],
            "visibility": "visible",
            "tester_file": "C++/3_Expert/05_TreeSearch/tree_search_depth_first_tester.cpp",
            "memory_limit_mb": 256,
            "timeout": 30
        },
        {
            "type": "functionality",
            "max_score": 30.0,
            "number": "3",
            "tags": [],
            "visibility": "visible",
            "tester_file": "C++/3_Expert/05_TreeSearch/tree_search_breadth_first_tester.cpp",
            "memory_limit_mb": 256,
            "timeout": 30
        },
        {
            "type": "static",
            "max_score": 10.0,
            "number": "4",
            "tags": [],
            "visibility": "visible"
        },
        {
            "type": "comments",
            "max_score": 10.0,
            "number": "5",
            "tags": [],
            "visibility": "visible"
        },
        {
            "type": "style",
            "max_score": 10.0,
            "number": "6",
            "tags": [],
            "visibility": "visible",
            "style": "google"
        }
    ]
}